<svg xmlns="http://www.w3.org/2000/svg" viewBox="0 0 14 11.45">
  <title>letter</title>
  <path d="M12.73,0A1.27,1.27,0,0,1,14,1.27v8.91a1.27,1.27,0,0,1-1.27,1.27H1.27A1.27,1.27,0,0,1,0,10.18V1.27A1.27,1.27,0,0,1,1.27,0ZM2.38,1.27,7,4.91l4.56-3.64Zm10.34,8.91V2L7,6.54,1.27,2v8.17Z"/>
</svg>
